{
  "Resources": {
    "SecurityGroupDD263621": {
      "Type": "AWS::EC2::SecurityGroup",
      "Properties": {
        "GroupDescription": "Allow RDP (TCP port 3389) in",
        "SecurityGroupEgress": [
          {
            "CidrIp": "0.0.0.0/0",
            "Description": "Allow all outbound traffic by default",
            "IpProtocol": "-1"
          }
        ],
        "SecurityGroupIngress": [
          {
            "CidrIp": "67.164.35.198/32",
            "Description": "Allow RDP Access",
            "FromPort": 3389,
            "IpProtocol": "tcp",
            "ToPort": 3389
          },
          {
            "CidrIp": "73.41.173.126/32",
            "Description": "Allow RDP Access",
            "FromPort": 3389,
            "IpProtocol": "tcp",
            "ToPort": 3389
          }
        ],
        "VpcId": "vpc-01ca971af21cf4704"
      },
      "Metadata": {
        "aws:cdk:path": "CfmlEnvCdkAppStack/SecurityGroup/Resource"
      }
    },
    "InstanceInstanceProfileAB5AEF02": {
      "Type": "AWS::IAM::InstanceProfile",
      "Properties": {
        "Roles": [
          "secrets-ec2-role-447600986627-us-east-1"
        ]
      },
      "Metadata": {
        "aws:cdk:path": "CfmlEnvCdkAppStack/Instance/InstanceProfile"
      }
    },
    "InstanceC1063A87": {
      "Type": "AWS::EC2::Instance",
      "Properties": {
        "AvailabilityZone": "us-east-1a",
        "IamInstanceProfile": {
          "Ref": "InstanceInstanceProfileAB5AEF02"
        },
        "ImageId": {
          "Ref": "SsmParameterValueawsserviceamiwindowslatestWindowsServer2019EnglishFullBaseC96584B6F00A464EAD1953AFF4B05118Parameter"
        },
        "InstanceType": "r5.large",
        "KeyName": "ec2-key-pair",
        "SecurityGroupIds": [
          {
            "Fn::GetAtt": [
              "SecurityGroupDD263621",
              "GroupId"
            ]
          }
        ],
        "SubnetId": "subnet-04f53390c6fd2caf3",
        "Tags": [
          {
            "Key": "Name",
            "Value": "CfmlEnvCdkAppStack/Instance"
          }
        ],
        "UserData": {
          "Fn::Base64": {
            "Fn::Join": [
              "",
              [
                "<powershell># fingerprint: f7d0f96284852402\ncfn-init.exe -v --region ",
                {
                  "Ref": "AWS::Region"
                },
                " --stack ",
                {
                  "Ref": "AWS::StackName"
                },
                " --resource InstanceC1063A87 -c default\ncfn-signal.exe -e $LASTEXITCODE --region ",
                {
                  "Ref": "AWS::Region"
                },
                " --stack ",
                {
                  "Ref": "AWS::StackName"
                },
                " --resource InstanceC1063A87\ntype C:\\cfn\\log\\cfn-init.log</powershell>"
              ]
            ]
          }
        }
      },
      "CreationPolicy": {
        "ResourceSignal": {
          "Count": 1,
          "Timeout": "PT5M"
        }
      },
      "Metadata": {
        "aws:cdk:path": "CfmlEnvCdkAppStack/Instance/Resource",
        "AWS::CloudFormation::Init": {
          "configSets": {
            "default": [
              "config"
            ]
          },
          "config": {
            "packages": {
              "msi": {
                "000": "https://s3.amazonaws.com/amazoncloudwatch-agent/windows/amd64/latest/amazon-cloudwatch-agent.msi",
                "001": "https://github.com/aws/aws-sam-cli/releases/latest/download/AWS_SAM_CLI_64_PY3.msi",
                "002": "https://awscli.amazonaws.com/AWSCLIV2.msi"
              }
            },
            "files": {
              "C:\\Program Files\\Amazon\\AmazonCloudWatchAgent\\config.json": {
                "content": "{          \"logs\": {            \"logs_collected\": {              \"files\": {                \"collect_list\": [                 {                   \"file_path\": \"C:\\\\cfn\\\\log\\\\cfn-init.log\",                   \"log_group_name\": \"{instance_id}\",                   \"log_stream_name\": \"cfn-init-log\",                   \"timestamp_format\": \"%H: %M: %S%y%b%-d\"                 },                 {                   \"file_path\": \"C:\\\\cfn\\\\log\\\\cfn-init-cmd.log\",                   \"log_group_name\": \"{instance_id}\",                   \"log_stream_name\": \"cfn-init-log-cmd\",                   \"timestamp_format\": \"%H: %M: %S%y%b%-d\"                 }               ]             },              \"windows_events\": {                \"collect_list\": [                  {                    \"event_name\": \"System\",                    \"event_levels\": [                      \"INFORMATION\",                      \"ERROR\"                    ],                    \"log_group_name\": \"{instance_id}\",                    \"log_stream_name\": \"system\",                    \"event_format\": \"xml\"                  },                  {                    \"event_name\": \"Application\",                    \"event_levels\": [                      \"INFORMATION\",                      \"ERROR\"                    ],                    \"log_group_name\": \"{instance_id}\",                    \"log_stream_name\": \"application\",                    \"event_format\": \"xml\"                  }                ]              }           }          }        }",
                "encoding": "plain"
              },
              "c:\\cfn\\gitlabRunnerBootstrap.ps1": {
                "source": {
                  "Fn::Sub": "https://s3.us-east-1.${AWS::URLSuffix}/cdk-hnb659fds-assets-447600986627-us-east-1/df9611a14d2c18f81e4964be3098d270c16f222e820e95f70758af0962d83f73.ps1"
                }
              },
              "c:\\cfn\\nodeBootstrap.ps1": {
                "source": {
                  "Fn::Sub": "https://s3.us-east-1.${AWS::URLSuffix}/cdk-hnb659fds-assets-447600986627-us-east-1/451eb177e2e605b0c81f54ca8ff27899d223061c60cd86d52969d8c6f95c5386.ps1"
                }
              }
            },
            "commands": {
              "04-node-bootstrapping": {
                "command": "powershell.exe -Command \"C:\\cfn\\nodeBootstrap.ps1\"",
                "waitAfterCompletion": 0
              },
              "03-gitlab-runner-bootstrapping": {
                "command": "powershell.exe -Command \"C:\\cfn\\gitlabRunnerBootstrap.ps1\"",
                "waitAfterCompletion": 0
              },
              "02-cwlogsetup": {
                "command": "powershell.exe -Command \"& 'C:\\Program Files\\Amazon\\AmazonCloudWatchAgent\\amazon-cloudwatch-agent-ctl.ps1' -a fetch-config -m ec2 -c file:'C:\\Program Files\\Amazon\\AmazonCloudWatchAgent\\config.json' -s\"",
                "waitAfterCompletion": 0
              },
              "91-Signal": {
                "command": {
                  "Fn::Join": [
                    "",
                    [
                      "cfn-signal.exe -e %ERRORLEVEL% --resource InstanceC1063A87 --stack ",
                      {
                        "Ref": "AWS::StackId"
                      },
                      " --region us-east-1"
                    ]
                  ]
                },
                "waitAfterCompletion": 0
              }
            }
          }
        },
        "AWS::CloudFormation::Authentication": {
          "S3AccessCreds": {
            "type": "S3",
            "roleName": "secrets-ec2-role-447600986627-us-east-1",
            "buckets": [
              "cdk-hnb659fds-assets-447600986627-us-east-1"
            ]
          }
        }
      }
    },
    "CDKMetadata": {
      "Type": "AWS::CDK::Metadata",
      "Properties": {
        "Analytics": "v2:deflate64:H4sIAAAAAAAA/1WPzQ6CQAyEn8X7UgUS7+LBeJLgA5B1qWT5Wci2qzGEd7doSPQ0036dZJpADLuNflJkqjbq7A2mK2vTqgJpCN6gElZOaBIBaIK3/Dr5IYzqeHf/i7Mj1k4SQlY/K6t7+FnkfrjbDhWlpSZCJjgsIjNkwbTImSZJSSLXXvfI6NXnQlrV1tULuQQeAy9uLTkrN1QIDW0f8R5S+aghayMfHNseofjqGxsgEknsAAAA"
      },
      "Metadata": {
        "aws:cdk:path": "CfmlEnvCdkAppStack/CDKMetadata/Default"
      }
    }
  },
  "Parameters": {
    "SsmParameterValueawsserviceamiwindowslatestWindowsServer2019EnglishFullBaseC96584B6F00A464EAD1953AFF4B05118Parameter": {
      "Type": "AWS::SSM::Parameter::Value<AWS::EC2::Image::Id>",
      "Default": "/aws/service/ami-windows-latest/Windows_Server-2019-English-Full-Base"
    },
    "BootstrapVersion": {
      "Type": "AWS::SSM::Parameter::Value<String>",
      "Default": "/cdk-bootstrap/hnb659fds/version",
      "Description": "Version of the CDK Bootstrap resources in this environment, automatically retrieved from SSM Parameter Store. [cdk:skip]"
    }
  },
  "Outputs": {
    "IPAddress": {
      "Value": {
        "Fn::GetAtt": [
          "InstanceC1063A87",
          "PublicIp"
        ]
      }
    }
  },
  "Rules": {
    "CheckBootstrapVersion": {
      "Assertions": [
        {
          "Assert": {
            "Fn::Not": [
              {
                "Fn::Contains": [
                  [
                    "1",
                    "2",
                    "3",
                    "4",
                    "5"
                  ],
                  {
                    "Ref": "BootstrapVersion"
                  }
                ]
              }
            ]
          },
          "AssertDescription": "CDK bootstrap stack version 6 required. Please run 'cdk bootstrap' with a recent version of the CDK CLI."
        }
      ]
    }
  }
}