{
  "version": "15.0.0",
  "files": {
    "df9611a14d2c18f81e4964be3098d270c16f222e820e95f70758af0962d83f73": {
      "source": {
        "path": "asset.df9611a14d2c18f81e4964be3098d270c16f222e820e95f70758af0962d83f73.ps1",
        "packaging": "file"
      },
      "destinations": {
        "447600986627-us-east-1": {
          "bucketName": "cdk-hnb659fds-assets-447600986627-us-east-1",
          "objectKey": "df9611a14d2c18f81e4964be3098d270c16f222e820e95f70758af0962d83f73.ps1",
          "region": "us-east-1",
          "assumeRoleArn": "arn:${AWS::Partition}:iam::447600986627:role/developer_bound/cdk-hnb659fds-file-publishing-role-447600986627-us-east-1"
        }
      }
    },
    "451eb177e2e605b0c81f54ca8ff27899d223061c60cd86d52969d8c6f95c5386": {
      "source": {
        "path": "asset.451eb177e2e605b0c81f54ca8ff27899d223061c60cd86d52969d8c6f95c5386.ps1",
        "packaging": "file"
      },
      "destinations": {
        "447600986627-us-east-1": {
          "bucketName": "cdk-hnb659fds-assets-447600986627-us-east-1",
          "objectKey": "451eb177e2e605b0c81f54ca8ff27899d223061c60cd86d52969d8c6f95c5386.ps1",
          "region": "us-east-1",
          "assumeRoleArn": "arn:${AWS::Partition}:iam::447600986627:role/developer_bound/cdk-hnb659fds-file-publishing-role-447600986627-us-east-1"
        }
      }
    },
    "fcb8d7af4c56fda0472d2ab3eeddd9a0996bfc7cec58f23e2383e573258e994e": {
      "source": {
        "path": "CfmlEnvCdkAppStack.template.json",
        "packaging": "file"
      },
      "destinations": {
        "447600986627-us-east-1": {
          "bucketName": "cdk-hnb659fds-assets-447600986627-us-east-1",
          "objectKey": "fcb8d7af4c56fda0472d2ab3eeddd9a0996bfc7cec58f23e2383e573258e994e.json",
          "region": "us-east-1",
          "assumeRoleArn": "arn:${AWS::Partition}:iam::447600986627:role/developer_bound/cdk-hnb659fds-file-publishing-role-447600986627-us-east-1"
        }
      }
    }
  },
  "dockerImages": {}
}